…
<script src="{{< blogdown/postref >}}index_files/htmlwidgets/htmlwidgets.js">
<link href="{{< blogdown/postref >}}index_files/datatables-css/datatables-crosstalk.css" rel="stylesheet" />
<script src="{{< blogdown/postref >}}index_files/datatables-binding/datatables.js">
<script src="{{< blogdown/postref >}}index_files/jquery/jquery-3.6.0.min.js">
<link href="{{< blogdown/postref >}}index_files/dt-core/css/jquery.dataTables.min.css" rel="stylesheet" />
<link href="{{< blogdown/postref >}}index_files/dt-core/css/jquery.dataTables.extra.css" rel="stylesheet" />
<script src="{{< blogdown/postref >}}index_files/dt-core/js/jquery.dataTables.min.js">
<link href="{{< blogdown/postref >}}index_files/crosstalk/css/crosstalk.min.css" rel="stylesheet" />
<script src="{{< blogdown/postref >}}index_files/crosstalk/js/crosstalk.min.js">

## # A tibble: 160 × 5
##    Reference CouncilAreas          Accidental   All NotAccidental
##    <chr>     <chr>                      <dbl> <dbl>         <dbl>
##  1 2020/2021 Aberdeen City                414   756           342
##  2 2020/2021 Aberdeenshire                509   740           231
##  3 2020/2021 Angus                        221   396           175
##  4 2020/2021 Argyll and Bute              252   330            78
##  5 2020/2021 City of Edinburgh           1023  2293          1270
##  6 2020/2021 Clackmannanshire             114   202            88
##  7 2020/2021 Dumfries and Galloway        295   443           148
##  8 2020/2021 Dundee City                  384  1035           651
##  9 2020/2021 East Ayrshire                216   809           593
## 10 2020/2021 East Dunbartonshire          137   376           239
## # … with 150 more rows
…
